<?xml version="1.0" encoding="UTF-8"?>
<checkstyle version="3.5.8">
<file name="/app/src/Email.php">
 <error line="2" column="7" severity="error" message="Each class must be in a namespace of at least one level (a top-level vendor name)" source="PSR1.Classes.ClassDeclaration.MissingNamespace"/>
 <error line="34" column="1" severity="error" message="Expected 1 newline at end of file; 0 found" source="PSR2.Files.EndFileNewline.NoneFound"/>
</file>
<file name="/app/src/checkmail.php">
 <error line="12" column="1" severity="error" message="Expected 1 blank line at end of file; 2 found" source="PSR2.Files.EndFileNewline.TooMany"/>
</file>
</checkstyle>

